{
    "message": [
       {
           "id": 1,
           "user": {
               "userId" : 1,
               "name": "Nguyen Van Hoi",
               "phone": "09832132132",
               "address": "214E Nguyễn Trãi, Phường Nguyễn Cư Trinh, Quận 1, TP.HCM",
                "birthDay": "",
                "email" : "vanhoinguyen98@gmail.com",
                "image": "assets/demo/images/avatar/amyelsner.png"
           },
           "notes": [
                {
                    "id" : 1,
                    "content": "Mua hang hom qua"
                },
                {
                    "id" : 2,
                    "content": "Mua Mau hong"
                },
                {
                    "id" : 3,
                    "content": "Size XXL"
                }
           ],
           "orders" : [
                {
                    "id" : 1,
                    "name": "Đơn hàng lưu tạm",
                    "createdAt": "08/10/2020 8:24 PM",
                    "total": 320000,
                    "status": "chờ giao hàng"
                },
                {
                    "id": 2,
                    "name": "DH001",
                    "createdAt": "08/10/2020 8:24 PM",
                    "total": 620000,
                    "status": "Đã giao"
                }
           ],
           "conversations": [
                {
                    "isOwner": true,
                    "message": "Chào bạn , cho mình xin địa chỉ ạ",
                    "avatar": {
                    "src": "assets/layout/images/avatar/avatar.png",
                    "alt": "User"
                    }
                },
                {
                    "isOwner": false,
                    "message": "214E Nguyễn Trãi, Phường Nguyễn Cư Trinh, Quận 1, TP.HCM",
                    "avatar": {
                        "src": "assets/layout/images/avatar/avatar2.png",
                        "alt": "Contact"
                    }
                },
                {
                    "isOwner": false,
                    "message": "098231232 SDT mình nhé!",
                    "avatar": {
                        "src": "assets/layout/images/avatar/avatar2.png",
                        "alt": "Contact"
                    }
                },
                {
                    "isOwner": true,
                    "message": "Mình chốt đơn cho bạn rồi nhé",
                    "avatar": {
                        "src": "assets/layout/images/avatar/avatar.png",
                        "alt": "Contact"
                    }
                }
           ]
       },
       {
            "id": 2,
            "user": {
               "userId" : 2,
                "name": "Le Mai Van Khanh",
                "phone": "",
                "address": "214E Nguyễn Trãi, Phường Nguyễn Cư Trinh, Quận 1, TP.HCM",
                "birthDay": "",
                "email" : "khanhduv4@gmail.com",
                "image": "assets/demo/images/avatar/elwinsharvill.png"
            },
            "notes": [
                {
                    "id" : 1,
                    "content": "Ship qua USA"
                }
           ],
           "orders" : [
            {
                "id" : 1,
                "name": "Đơn hàng lưu tạm",
                "createdAt": "08/10/2020 8:24 PM",
                "total": 150000,
                "status": "chờ giao hàng"
            }
           ],
            "conversations": [
                {
                    "isOwner": false,
                    "message": "Da em chao anh a !",
                    "avatar": {
                        "src": "assets/layout/images/avatar/avatar2.png",
                        "alt": "Contact"
                    }
                },
                {
                    "isOwner": true,
                    "message": "Da em chao anh a !",
                    "avatar": {
                        "src": "assets/layout/images/avatar/avatar.png",
                        "alt": "Contact"
                    }
                }
            ]
        },
        {
            "id": 3,
            "user": {
                "userId" : 3,
                "name": "Tran Ngoc Hung",
                "phone": "09823123213",
                "address": "",
                "birthDay": "",
                "email" : "ngochung98@gmail.com",
                "image": "assets/demo/images/avatar/xuxuefeng.png"
            },
            "notes" : [],
            "orders": [],
            "conversations": [
                {
                    "isOwner": true,
                    "message": "Chao em",
                    "avatar": {
                    "src": "assets/layout/images/avatar/avatar.png",
                    "alt": "User"
                    }
                },
                {
                    "isOwner": false,
                    "message": "Da em chao anh a !",
                    "avatar": {
                        "src": "assets/layout/images/avatar/avatar2.png",
                        "alt": "Contact"
                    }
                }
            ]
        }
    ]
}